('D:\\Data-Science\\Programming_Assignment_3\\project_clustering\\build\\clustering\\out00-PYZ.pyz',
 [('win32com',
   'c:\\program files\\python35\\lib\\site-packages\\win32com\\__init__.py',
   'PYMODULE'),
  ('win32com.server.util',
   'c:\\program files\\python35\\lib\\site-packages\\win32com\\server\\util.py',
   'PYMODULE'),
  ('win32com.server.dispatcher',
   'c:\\program '
   'files\\python35\\lib\\site-packages\\win32com\\server\\dispatcher.py',
   'PYMODULE'),
  ('win32traceutil',
   'c:\\program '
   'files\\python35\\lib\\site-packages\\win32\\lib\\win32traceutil.py',
   'PYMODULE'),
  ('win32com.util',
   'c:\\program files\\python35\\lib\\site-packages\\win32com\\util.py',
   'PYMODULE'),
  ('win32con',
   'c:\\program files\\python35\\lib\\site-packages\\win32\\lib\\win32con.py',
   'PYMODULE'),
  ('win32com.server.exception',
   'c:\\program '
   'files\\python35\\lib\\site-packages\\win32com\\server\\exception.py',
   'PYMODULE'),
  ('winerror',
   'c:\\program files\\python35\\lib\\site-packages\\win32\\lib\\winerror.py',
   'PYMODULE'),
  ('win32com.server.policy',
   'c:\\program '
   'files\\python35\\lib\\site-packages\\win32com\\server\\policy.py',
   'PYMODULE'),
  ('win32com.client',
   'c:\\program '
   'files\\python35\\lib\\site-packages\\win32com\\client\\__init__.py',
   'PYMODULE'),
  ('win32com.client.makepy',
   'c:\\program '
   'files\\python35\\lib\\site-packages\\win32com\\client\\makepy.py',
   'PYMODULE'),
  ('pywin.dialogs.status',
   'c:\\program '
   'files\\python35\\lib\\site-packages\\Pythonwin\\pywin\\dialogs\\status.py',
   'PYMODULE'),
  ('pywin.mfc.thread',
   'c:\\program '
   'files\\python35\\lib\\site-packages\\Pythonwin\\pywin\\mfc\\thread.py',
   'PYMODULE'),
  ('pywin.mfc.object',
   'c:\\program '
   'files\\python35\\lib\\site-packages\\Pythonwin\\pywin\\mfc\\object.py',
   'PYMODULE'),
  ('pywin.mfc.dialog',
   'c:\\program '
   'files\\python35\\lib\\site-packages\\Pythonwin\\pywin\\mfc\\dialog.py',
   'PYMODULE'),
  ('pywin.mfc.window',
   'c:\\program '
   'files\\python35\\lib\\site-packages\\Pythonwin\\pywin\\mfc\\window.py',
   'PYMODULE'),
  ('pywin.mfc',
   'c:\\program '
   'files\\python35\\lib\\site-packages\\Pythonwin\\pywin\\mfc\\__init__.py',
   'PYMODULE'),
  ('pywin.dialogs',
   'c:\\program '
   'files\\python35\\lib\\site-packages\\Pythonwin\\pywin\\dialogs\\__init__.py',
   'PYMODULE'),
  ('pywin',
   'c:\\program '
   'files\\python35\\lib\\site-packages\\Pythonwin\\pywin\\__init__.py',
   'PYMODULE'),
  ('win32com.client.gencache',
   'c:\\program '
   'files\\python35\\lib\\site-packages\\win32com\\client\\gencache.py',
   'PYMODULE'),
  ('win32com.client.genpy',
   'c:\\program '
   'files\\python35\\lib\\site-packages\\win32com\\client\\genpy.py',
   'PYMODULE'),
  ('win32com.client.selecttlb',
   'c:\\program '
   'files\\python35\\lib\\site-packages\\win32com\\client\\selecttlb.py',
   'PYMODULE'),
  ('pywin.dialogs.list',
   'c:\\program '
   'files\\python35\\lib\\site-packages\\Pythonwin\\pywin\\dialogs\\list.py',
   'PYMODULE'),
  ('commctrl',
   'c:\\program files\\python35\\lib\\site-packages\\win32\\lib\\commctrl.py',
   'PYMODULE'),
  ('win32com.client.CLSIDToClass',
   'c:\\program '
   'files\\python35\\lib\\site-packages\\win32com\\client\\CLSIDToClass.py',
   'PYMODULE'),
  ('win32com.client.dynamic',
   'c:\\program '
   'files\\python35\\lib\\site-packages\\win32com\\client\\dynamic.py',
   'PYMODULE'),
  ('win32com.client.build',
   'c:\\program '
   'files\\python35\\lib\\site-packages\\win32com\\client\\build.py',
   'PYMODULE'),
  ('pywintypes',
   'c:\\program files\\python35\\lib\\site-packages\\win32\\lib\\pywintypes.py',
   'PYMODULE'),
  ('win32com.server',
   'c:\\program '
   'files\\python35\\lib\\site-packages\\win32com\\server\\__init__.py',
   'PYMODULE'),
  ('win32com.universal',
   'c:\\program files\\python35\\lib\\site-packages\\win32com\\universal.py',
   'PYMODULE'),
  ('win32com.client.util',
   'c:\\program files\\python35\\lib\\site-packages\\win32com\\client\\util.py',
   'PYMODULE'),
  ('pythoncom',
   'c:\\program files\\python35\\lib\\site-packages\\pythoncom.py',
   'PYMODULE'),
  ('pkg_resources',
   'c:\\program '
   'files\\python35\\lib\\site-packages\\pkg_resources\\__init__.py',
   'PYMODULE'),
  ('__main__',
   'C:\\Program Files\\Python35\\Scripts\\pyinstaller.exe\\__main__.py',
   'PYMODULE'),
  ('PyInstaller.__main__',
   'c:\\program files\\python35\\lib\\site-packages\\PyInstaller\\__main__.py',
   'PYMODULE'),
  ('PyInstaller',
   'c:\\program files\\python35\\lib\\site-packages\\PyInstaller\\__init__.py',
   'PYMODULE'),
  ('PyInstaller.configure',
   'c:\\program files\\python35\\lib\\site-packages\\PyInstaller\\configure.py',
   'PYMODULE'),
  ('PyInstaller.utils.git',
   'c:\\program '
   'files\\python35\\lib\\site-packages\\PyInstaller\\utils\\git.py',
   'PYMODULE'),
  ('PyInstaller.utils',
   'c:\\program '
   'files\\python35\\lib\\site-packages\\PyInstaller\\utils\\__init__.py',
   'PYMODULE'),
  ('PyInstaller.utils._gitrevision',
   'c:\\program '
   'files\\python35\\lib\\site-packages\\PyInstaller\\utils\\_gitrevision.py',
   'PYMODULE'),
  ('PyInstaller.log',
   'c:\\program files\\python35\\lib\\site-packages\\PyInstaller\\log.py',
   'PYMODULE'),
  ('PyInstaller.compat',
   'c:\\program files\\python35\\lib\\site-packages\\PyInstaller\\compat.py',
   'PYMODULE'),
  ('PyInstaller.utils.win32.winutils',
   'c:\\program '
   'files\\python35\\lib\\site-packages\\PyInstaller\\utils\\win32\\winutils.py',
   'PYMODULE'),
  ('PyInstaller.utils.win32',
   'c:\\program '
   'files\\python35\\lib\\site-packages\\PyInstaller\\utils\\win32\\__init__.py',
   'PYMODULE'),
  ('PyInstaller.utils.win32.versioninfo',
   'c:\\program '
   'files\\python35\\lib\\site-packages\\PyInstaller\\utils\\win32\\versioninfo.py',
   'PYMODULE'),
  ('PyInstaller.lib.pefile',
   'c:\\program '
   'files\\python35\\lib\\site-packages\\PyInstaller\\lib\\pefile.py',
   'PYMODULE'),
  ('PyInstaller.lib.ordlookup',
   'c:\\program '
   'files\\python35\\lib\\site-packages\\PyInstaller\\lib\\ordlookup\\__init__.py',
   'PYMODULE'),
  ('PyInstaller.lib.ordlookup.oleaut32',
   'c:\\program '
   'files\\python35\\lib\\site-packages\\PyInstaller\\lib\\ordlookup\\oleaut32.py',
   'PYMODULE'),
  ('PyInstaller.lib.ordlookup.ws2_32',
   'c:\\program '
   'files\\python35\\lib\\site-packages\\PyInstaller\\lib\\ordlookup\\ws2_32.py',
   'PYMODULE'),
  ('past.utils',
   'c:\\program files\\python35\\lib\\site-packages\\past\\utils\\__init__.py',
   'PYMODULE'),
  ('past',
   'c:\\program files\\python35\\lib\\site-packages\\past\\__init__.py',
   'PYMODULE'),
  ('future',
   'c:\\program files\\python35\\lib\\site-packages\\future\\__init__.py',
   'PYMODULE'),
  ('future.standard_library',
   'c:\\program '
   'files\\python35\\lib\\site-packages\\future\\standard_library\\__init__.py',
   'PYMODULE'),
  ('future.moves.dbm.ndbm',
   'c:\\program '
   'files\\python35\\lib\\site-packages\\future\\moves\\dbm\\ndbm.py',
   'PYMODULE'),
  ('dbm.ndbm', 'c:\\program files\\python35\\lib\\dbm\\ndbm.py', 'PYMODULE'),
  ('future.moves.dbm.gnu',
   'c:\\program '
   'files\\python35\\lib\\site-packages\\future\\moves\\dbm\\gnu.py',
   'PYMODULE'),
  ('dbm.gnu', 'c:\\program files\\python35\\lib\\dbm\\gnu.py', 'PYMODULE'),
  ('future.moves.dbm.dumb',
   'c:\\program '
   'files\\python35\\lib\\site-packages\\future\\moves\\dbm\\dumb.py',
   'PYMODULE'),
  ('dbm.dumb', 'c:\\program files\\python35\\lib\\dbm\\dumb.py', 'PYMODULE'),
  ('future.moves.dbm',
   'c:\\program '
   'files\\python35\\lib\\site-packages\\future\\moves\\dbm\\__init__.py',
   'PYMODULE'),
  ('future.moves',
   'c:\\program '
   'files\\python35\\lib\\site-packages\\future\\moves\\__init__.py',
   'PYMODULE'),
  ('dbm', 'c:\\program files\\python35\\lib\\dbm\\__init__.py', 'PYMODULE'),
  ('future.moves.test.support',
   'c:\\program '
   'files\\python35\\lib\\site-packages\\future\\moves\\test\\support.py',
   'PYMODULE'),
  ('test.test_support',
   'c:\\program files\\python35\\lib\\test\\test_support.py',
   'PYMODULE'),
  ('sched', 'c:\\program files\\python35\\lib\\sched.py', 'PYMODULE'),
  ('test.support',
   'c:\\program files\\python35\\lib\\test\\support\\__init__.py',
   'PYMODULE'),
  ('tracemalloc',
   'c:\\program files\\python35\\lib\\tracemalloc.py',
   'PYMODULE'),
  ('urllib.request',
   'c:\\program files\\python35\\lib\\urllib\\request.py',
   'PYMODULE'),
  ('getpass', 'c:\\program files\\python35\\lib\\getpass.py', 'PYMODULE'),
  ('nturl2path', 'c:\\program files\\python35\\lib\\nturl2path.py', 'PYMODULE'),
  ('ftplib', 'c:\\program files\\python35\\lib\\ftplib.py', 'PYMODULE'),
  ('netrc', 'c:\\program files\\python35\\lib\\netrc.py', 'PYMODULE'),
  ('http.cookiejar',
   'c:\\program files\\python35\\lib\\http\\cookiejar.py',
   'PYMODULE'),
  ('urllib.response',
   'c:\\program files\\python35\\lib\\urllib\\response.py',
   'PYMODULE'),
  ('bisect', 'c:\\program files\\python35\\lib\\bisect.py', 'PYMODULE'),
  ('tkinter',
   'c:\\program files\\python35\\lib\\tkinter\\__init__.py',
   'PYMODULE'),
  ('tkinter.constants',
   'c:\\program files\\python35\\lib\\tkinter\\constants.py',
   'PYMODULE'),
  ('ctypes.util',
   'c:\\program files\\python35\\lib\\ctypes\\util.py',
   'PYMODULE'),
  ('ctypes.macholib.dyld',
   'c:\\program files\\python35\\lib\\ctypes\\macholib\\dyld.py',
   'PYMODULE'),
  ('ctypes.macholib',
   'c:\\program files\\python35\\lib\\ctypes\\macholib\\__init__.py',
   'PYMODULE'),
  ('ctypes.macholib.dylib',
   'c:\\program files\\python35\\lib\\ctypes\\macholib\\dylib.py',
   'PYMODULE'),
  ('ctypes.macholib.framework',
   'c:\\program files\\python35\\lib\\ctypes\\macholib\\framework.py',
   'PYMODULE'),
  ('multiprocessing.process',
   'c:\\program files\\python35\\lib\\multiprocessing\\process.py',
   'PYMODULE'),
  ('multiprocessing.context',
   'c:\\program files\\python35\\lib\\multiprocessing\\context.py',
   'PYMODULE'),
  ('multiprocessing.popen_spawn_win32',
   'c:\\program files\\python35\\lib\\multiprocessing\\popen_spawn_win32.py',
   'PYMODULE'),
  ('multiprocessing.popen_forkserver',
   'c:\\program files\\python35\\lib\\multiprocessing\\popen_forkserver.py',
   'PYMODULE'),
  ('multiprocessing.popen_spawn_posix',
   'c:\\program files\\python35\\lib\\multiprocessing\\popen_spawn_posix.py',
   'PYMODULE'),
  ('multiprocessing.semaphore_tracker',
   'c:\\program files\\python35\\lib\\multiprocessing\\semaphore_tracker.py',
   'PYMODULE'),
  ('multiprocessing.popen_fork',
   'c:\\program files\\python35\\lib\\multiprocessing\\popen_fork.py',
   'PYMODULE'),
  ('multiprocessing.reduction',
   'c:\\program files\\python35\\lib\\multiprocessing\\reduction.py',
   'PYMODULE'),
  ('multiprocessing.resource_sharer',
   'c:\\program files\\python35\\lib\\multiprocessing\\resource_sharer.py',
   'PYMODULE'),
  ('multiprocessing.forkserver',
   'c:\\program files\\python35\\lib\\multiprocessing\\forkserver.py',
   'PYMODULE'),
  ('multiprocessing.spawn',
   'c:\\program files\\python35\\lib\\multiprocessing\\spawn.py',
   'PYMODULE'),
  ('runpy', 'c:\\program files\\python35\\lib\\runpy.py', 'PYMODULE'),
  ('multiprocessing.sharedctypes',
   'c:\\program files\\python35\\lib\\multiprocessing\\sharedctypes.py',
   'PYMODULE'),
  ('multiprocessing.heap',
   'c:\\program files\\python35\\lib\\multiprocessing\\heap.py',
   'PYMODULE'),
  ('multiprocessing.pool',
   'c:\\program files\\python35\\lib\\multiprocessing\\pool.py',
   'PYMODULE'),
  ('multiprocessing.dummy',
   'c:\\program files\\python35\\lib\\multiprocessing\\dummy\\__init__.py',
   'PYMODULE'),
  ('multiprocessing.dummy.connection',
   'c:\\program files\\python35\\lib\\multiprocessing\\dummy\\connection.py',
   'PYMODULE'),
  ('queue', 'c:\\program files\\python35\\lib\\queue.py', 'PYMODULE'),
  ('multiprocessing.queues',
   'c:\\program files\\python35\\lib\\multiprocessing\\queues.py',
   'PYMODULE'),
  ('multiprocessing.synchronize',
   'c:\\program files\\python35\\lib\\multiprocessing\\synchronize.py',
   'PYMODULE'),
  ('multiprocessing.connection',
   'c:\\program files\\python35\\lib\\multiprocessing\\connection.py',
   'PYMODULE'),
  ('xmlrpc.client',
   'c:\\program files\\python35\\lib\\xmlrpc\\client.py',
   'PYMODULE'),
  ('xmlrpc',
   'c:\\program files\\python35\\lib\\xmlrpc\\__init__.py',
   'PYMODULE'),
  ('hmac', 'c:\\program files\\python35\\lib\\hmac.py', 'PYMODULE'),
  ('multiprocessing.managers',
   'c:\\program files\\python35\\lib\\multiprocessing\\managers.py',
   'PYMODULE'),
  ('multiprocessing.util',
   'c:\\program files\\python35\\lib\\multiprocessing\\util.py',
   'PYMODULE'),
  ('multiprocessing',
   'c:\\program files\\python35\\lib\\multiprocessing\\__init__.py',
   'PYMODULE'),
  ('urllib.error',
   'c:\\program files\\python35\\lib\\urllib\\error.py',
   'PYMODULE'),
  ('nntplib', 'c:\\program files\\python35\\lib\\nntplib.py', 'PYMODULE'),
  ('logging.handlers',
   'c:\\program files\\python35\\lib\\logging\\handlers.py',
   'PYMODULE'),
  ('win32evtlogutil',
   'c:\\program '
   'files\\python35\\lib\\site-packages\\win32\\lib\\win32evtlogutil.py',
   'PYMODULE'),
  ('smtplib', 'c:\\program files\\python35\\lib\\smtplib.py', 'PYMODULE'),
  ('future.moves.test',
   'c:\\program '
   'files\\python35\\lib\\site-packages\\future\\moves\\test\\__init__.py',
   'PYMODULE'),
  ('test', 'c:\\program files\\python35\\lib\\test\\__init__.py', 'PYMODULE'),
  ('future.backports.urllib.robotparser',
   'c:\\program '
   'files\\python35\\lib\\site-packages\\future\\backports\\urllib\\robotparser.py',
   'PYMODULE'),
  ('future.backports',
   'c:\\program '
   'files\\python35\\lib\\site-packages\\future\\backports\\__init__.py',
   'PYMODULE'),
  ('future.backports.misc',
   'c:\\program '
   'files\\python35\\lib\\site-packages\\future\\backports\\misc.py',
   'PYMODULE'),
  ('future.backports.email',
   'c:\\program '
   'files\\python35\\lib\\site-packages\\future\\backports\\email\\__init__.py',
   'PYMODULE'),
  ('future.backports.email.parser',
   'c:\\program '
   'files\\python35\\lib\\site-packages\\future\\backports\\email\\parser.py',
   'PYMODULE'),
  ('future.backports.email._policybase',
   'c:\\program '
   'files\\python35\\lib\\site-packages\\future\\backports\\email\\_policybase.py',
   'PYMODULE'),
  ('future.backports.email.charset',
   'c:\\program '
   'files\\python35\\lib\\site-packages\\future\\backports\\email\\charset.py',
   'PYMODULE'),
  ('future.backports.email.encoders',
   'c:\\program '
   'files\\python35\\lib\\site-packages\\future\\backports\\email\\encoders.py',
   'PYMODULE'),
  ('future.backports.email.feedparser',
   'c:\\program '
   'files\\python35\\lib\\site-packages\\future\\backports\\email\\feedparser.py',
   'PYMODULE'),
  ('future.backports.email.message',
   'c:\\program '
   'files\\python35\\lib\\site-packages\\future\\backports\\email\\message.py',
   'PYMODULE'),
  ('future.backports.email.iterators',
   'c:\\program '
   'files\\python35\\lib\\site-packages\\future\\backports\\email\\iterators.py',
   'PYMODULE'),
  ('future.backports.email.generator',
   'c:\\program '
   'files\\python35\\lib\\site-packages\\future\\backports\\email\\generator.py',
   'PYMODULE'),
  ('future.backports.email._encoded_words',
   'c:\\program '
   'files\\python35\\lib\\site-packages\\future\\backports\\email\\_encoded_words.py',
   'PYMODULE'),
  ('future.backports.email.header',
   'c:\\program '
   'files\\python35\\lib\\site-packages\\future\\backports\\email\\header.py',
   'PYMODULE'),
  ('future.backports.email.quoprimime',
   'c:\\program '
   'files\\python35\\lib\\site-packages\\future\\backports\\email\\quoprimime.py',
   'PYMODULE'),
  ('future.backports.email.base64mime',
   'c:\\program '
   'files\\python35\\lib\\site-packages\\future\\backports\\email\\base64mime.py',
   'PYMODULE'),
  ('future.backports.email.utils',
   'c:\\program '
   'files\\python35\\lib\\site-packages\\future\\backports\\email\\utils.py',
   'PYMODULE'),
  ('future.backports.email._parseaddr',
   'c:\\program '
   'files\\python35\\lib\\site-packages\\future\\backports\\email\\_parseaddr.py',
   'PYMODULE'),
  ('future.backports.email.errors',
   'c:\\program '
   'files\\python35\\lib\\site-packages\\future\\backports\\email\\errors.py',
   'PYMODULE'),
  ('future.utils.surrogateescape',
   'c:\\program '
   'files\\python35\\lib\\site-packages\\future\\utils\\surrogateescape.py',
   'PYMODULE'),
  ('future.backports.datetime',
   'c:\\program '
   'files\\python35\\lib\\site-packages\\future\\backports\\datetime.py',
   'PYMODULE'),
  ('future.builtins',
   'c:\\program '
   'files\\python35\\lib\\site-packages\\future\\builtins\\__init__.py',
   'PYMODULE'),
  ('future.types.newint',
   'c:\\program files\\python35\\lib\\site-packages\\future\\types\\newint.py',
   'PYMODULE'),
  ('future.types.newlist',
   'c:\\program files\\python35\\lib\\site-packages\\future\\types\\newlist.py',
   'PYMODULE'),
  ('future.types.newstr',
   'c:\\program files\\python35\\lib\\site-packages\\future\\types\\newstr.py',
   'PYMODULE'),
  ('future.types.newrange',
   'c:\\program '
   'files\\python35\\lib\\site-packages\\future\\types\\newrange.py',
   'PYMODULE'),
  ('future.types.newdict',
   'c:\\program files\\python35\\lib\\site-packages\\future\\types\\newdict.py',
   'PYMODULE'),
  ('future.types.newbytes',
   'c:\\program '
   'files\\python35\\lib\\site-packages\\future\\types\\newbytes.py',
   'PYMODULE'),
  ('future.types.newobject',
   'c:\\program '
   'files\\python35\\lib\\site-packages\\future\\types\\newobject.py',
   'PYMODULE'),
  ('future.types',
   'c:\\program '
   'files\\python35\\lib\\site-packages\\future\\types\\__init__.py',
   'PYMODULE'),
  ('future.builtins.misc',
   'c:\\program files\\python35\\lib\\site-packages\\future\\builtins\\misc.py',
   'PYMODULE'),
  ('future.builtins.newsuper',
   'c:\\program '
   'files\\python35\\lib\\site-packages\\future\\builtins\\newsuper.py',
   'PYMODULE'),
  ('future.builtins.newround',
   'c:\\program '
   'files\\python35\\lib\\site-packages\\future\\builtins\\newround.py',
   'PYMODULE'),
  ('decimal', 'c:\\program files\\python35\\lib\\decimal.py', 'PYMODULE'),
  ('_pydecimal', 'c:\\program files\\python35\\lib\\_pydecimal.py', 'PYMODULE'),
  ('future.builtins.newnext',
   'c:\\program '
   'files\\python35\\lib\\site-packages\\future\\builtins\\newnext.py',
   'PYMODULE'),
  ('future.builtins.iterators',
   'c:\\program '
   'files\\python35\\lib\\site-packages\\future\\builtins\\iterators.py',
   'PYMODULE'),
  ('future.backports.urllib.error',
   'c:\\program '
   'files\\python35\\lib\\site-packages\\future\\backports\\urllib\\error.py',
   'PYMODULE'),
  ('future.backports.urllib.parse',
   'c:\\program '
   'files\\python35\\lib\\site-packages\\future\\backports\\urllib\\parse.py',
   'PYMODULE'),
  ('future.backports.urllib.response',
   'c:\\program '
   'files\\python35\\lib\\site-packages\\future\\backports\\urllib\\response.py',
   'PYMODULE'),
  ('future.backports.urllib.request',
   'c:\\program '
   'files\\python35\\lib\\site-packages\\future\\backports\\urllib\\request.py',
   'PYMODULE'),
  ('future.backports.http.cookiejar',
   'c:\\program '
   'files\\python35\\lib\\site-packages\\future\\backports\\http\\cookiejar.py',
   'PYMODULE'),
  ('future.backports.http.client',
   'c:\\program '
   'files\\python35\\lib\\site-packages\\future\\backports\\http\\client.py',
   'PYMODULE'),
  ('future.backports.http',
   'c:\\program '
   'files\\python35\\lib\\site-packages\\future\\backports\\http\\__init__.py',
   'PYMODULE'),
  ('future.backports.urllib',
   'c:\\program '
   'files\\python35\\lib\\site-packages\\future\\backports\\urllib\\__init__.py',
   'PYMODULE'),
  ('future.utils',
   'c:\\program '
   'files\\python35\\lib\\site-packages\\future\\utils\\__init__.py',
   'PYMODULE'),
  ('past.translation',
   'c:\\program '
   'files\\python35\\lib\\site-packages\\past\\translation\\__init__.py',
   'PYMODULE'),
  ('libfuturize.fixes',
   'c:\\program '
   'files\\python35\\lib\\site-packages\\libfuturize\\fixes\\__init__.py',
   'PYMODULE'),
  ('lib2to3',
   'c:\\program files\\python35\\lib\\lib2to3\\__init__.py',
   'PYMODULE'),
  ('lib2to3.btm_matcher',
   'c:\\program files\\python35\\lib\\lib2to3\\btm_matcher.py',
   'PYMODULE'),
  ('lib2to3.pygram',
   'c:\\program files\\python35\\lib\\lib2to3\\pygram.py',
   'PYMODULE'),
  ('lib2to3.pgen2.driver',
   'c:\\program files\\python35\\lib\\lib2to3\\pgen2\\driver.py',
   'PYMODULE'),
  ('lib2to3.pgen2.pgen',
   'c:\\program files\\python35\\lib\\lib2to3\\pgen2\\pgen.py',
   'PYMODULE'),
  ('lib2to3.pgen2.tokenize',
   'c:\\program files\\python35\\lib\\lib2to3\\pgen2\\tokenize.py',
   'PYMODULE'),
  ('lib2to3.pgen2.grammar',
   'c:\\program files\\python35\\lib\\lib2to3\\pgen2\\grammar.py',
   'PYMODULE'),
  ('lib2to3.pgen2.token',
   'c:\\program files\\python35\\lib\\lib2to3\\pgen2\\token.py',
   'PYMODULE'),
  ('lib2to3.pgen2',
   'c:\\program files\\python35\\lib\\lib2to3\\pgen2\\__init__.py',
   'PYMODULE'),
  ('lib2to3.pgen2.literals',
   'c:\\program files\\python35\\lib\\lib2to3\\pgen2\\literals.py',
   'PYMODULE'),
  ('lib2to3.btm_utils',
   'c:\\program files\\python35\\lib\\lib2to3\\btm_utils.py',
   'PYMODULE'),
  ('lib2to3.patcomp',
   'c:\\program files\\python35\\lib\\lib2to3\\patcomp.py',
   'PYMODULE'),
  ('lib2to3.pytree',
   'c:\\program files\\python35\\lib\\lib2to3\\pytree.py',
   'PYMODULE'),
  ('libfuturize',
   'c:\\program files\\python35\\lib\\site-packages\\libfuturize\\__init__.py',
   'PYMODULE'),
  ('lib2to3.refactor',
   'c:\\program files\\python35\\lib\\lib2to3\\refactor.py',
   'PYMODULE'),
  ('lib2to3.fixer_util',
   'c:\\program files\\python35\\lib\\lib2to3\\fixer_util.py',
   'PYMODULE'),
  ('lib2to3.pgen2.parse',
   'c:\\program files\\python35\\lib\\lib2to3\\pgen2\\parse.py',
   'PYMODULE'),
  ('numbers', 'c:\\program files\\python35\\lib\\numbers.py', 'PYMODULE'),
  ('past.builtins',
   'c:\\program '
   'files\\python35\\lib\\site-packages\\past\\builtins\\__init__.py',
   'PYMODULE'),
  ('past.builtins.misc',
   'c:\\program files\\python35\\lib\\site-packages\\past\\builtins\\misc.py',
   'PYMODULE'),
  ('past.types.oldstr',
   'c:\\program files\\python35\\lib\\site-packages\\past\\types\\oldstr.py',
   'PYMODULE'),
  ('past.types.basestring',
   'c:\\program '
   'files\\python35\\lib\\site-packages\\past\\types\\basestring.py',
   'PYMODULE'),
  ('past.types.olddict',
   'c:\\program files\\python35\\lib\\site-packages\\past\\types\\olddict.py',
   'PYMODULE'),
  ('past.types',
   'c:\\program files\\python35\\lib\\site-packages\\past\\types\\__init__.py',
   'PYMODULE'),
  ('past.builtins.noniterators',
   'c:\\program '
   'files\\python35\\lib\\site-packages\\past\\builtins\\noniterators.py',
   'PYMODULE'),
  ('PyInstaller.lib',
   'c:\\program '
   'files\\python35\\lib\\site-packages\\PyInstaller\\lib\\__init__.py',
   'PYMODULE'),
  ('PyInstaller.utils.win32.icon',
   'c:\\program '
   'files\\python35\\lib\\site-packages\\PyInstaller\\utils\\win32\\icon.py',
   'PYMODULE'),
  ('PyInstaller.utils.win32.winresource',
   'c:\\program '
   'files\\python35\\lib\\site-packages\\PyInstaller\\utils\\win32\\winresource.py',
   'PYMODULE'),
  ('site',
   'c:\\program '
   'files\\python35\\lib\\site-packages\\PyInstaller\\fake-modules\\site.py',
   'PYMODULE'),
  ('PyInstaller.building.build_main',
   'c:\\program '
   'files\\python35\\lib\\site-packages\\PyInstaller\\building\\build_main.py',
   'PYMODULE'),
  ('PyInstaller.building',
   'c:\\program '
   'files\\python35\\lib\\site-packages\\PyInstaller\\building\\__init__.py',
   'PYMODULE'),
  ('PyInstaller.config',
   'c:\\program files\\python35\\lib\\site-packages\\PyInstaller\\config.py',
   'PYMODULE'),
  ('PyInstaller.utils.win32.winmanifest',
   'c:\\program '
   'files\\python35\\lib\\site-packages\\PyInstaller\\utils\\win32\\winmanifest.py',
   'PYMODULE'),
  ('xml.dom.minidom',
   'c:\\program files\\python35\\lib\\xml\\dom\\minidom.py',
   'PYMODULE'),
  ('xml.dom.pulldom',
   'c:\\program files\\python35\\lib\\xml\\dom\\pulldom.py',
   'PYMODULE'),
  ('xml.sax.handler',
   'c:\\program files\\python35\\lib\\xml\\sax\\handler.py',
   'PYMODULE'),
  ('xml.sax',
   'c:\\program files\\python35\\lib\\xml\\sax\\__init__.py',
   'PYMODULE'),
  ('xml.sax.expatreader',
   'c:\\program files\\python35\\lib\\xml\\sax\\expatreader.py',
   'PYMODULE'),
  ('xml.sax._exceptions',
   'c:\\program files\\python35\\lib\\xml\\sax\\_exceptions.py',
   'PYMODULE'),
  ('xml.sax.saxutils',
   'c:\\program files\\python35\\lib\\xml\\sax\\saxutils.py',
   'PYMODULE'),
  ('xml.sax.xmlreader',
   'c:\\program files\\python35\\lib\\xml\\sax\\xmlreader.py',
   'PYMODULE'),
  ('xml.dom.expatbuilder',
   'c:\\program files\\python35\\lib\\xml\\dom\\expatbuilder.py',
   'PYMODULE'),
  ('xml.dom.NodeFilter',
   'c:\\program files\\python35\\lib\\xml\\dom\\NodeFilter.py',
   'PYMODULE'),
  ('xml.dom.xmlbuilder',
   'c:\\program files\\python35\\lib\\xml\\dom\\xmlbuilder.py',
   'PYMODULE'),
  ('xml.dom.minicompat',
   'c:\\program files\\python35\\lib\\xml\\dom\\minicompat.py',
   'PYMODULE'),
  ('xml.dom.domreg',
   'c:\\program files\\python35\\lib\\xml\\dom\\domreg.py',
   'PYMODULE'),
  ('xml.dom',
   'c:\\program files\\python35\\lib\\xml\\dom\\__init__.py',
   'PYMODULE'),
  ('PyInstaller.archive.pyz_crypto',
   'c:\\program '
   'files\\python35\\lib\\site-packages\\PyInstaller\\archive\\pyz_crypto.py',
   'PYMODULE'),
  ('PyInstaller.archive',
   'c:\\program '
   'files\\python35\\lib\\site-packages\\PyInstaller\\archive\\__init__.py',
   'PYMODULE'),
  ('PyInstaller.depend.utils',
   'c:\\program '
   'files\\python35\\lib\\site-packages\\PyInstaller\\depend\\utils.py',
   'PYMODULE'),
  ('distutils.spawn',
   'c:\\program files\\python35\\lib\\distutils\\spawn.py',
   'PYMODULE'),
  ('distutils.sysconfig',
   'c:\\program files\\python35\\lib\\distutils\\sysconfig.py',
   'PYMODULE'),
  ('distutils.text_file',
   'c:\\program files\\python35\\lib\\distutils\\text_file.py',
   'PYMODULE'),
  ('_osx_support',
   'c:\\program files\\python35\\lib\\_osx_support.py',
   'PYMODULE'),
  ('distutils.log',
   'c:\\program files\\python35\\lib\\distutils\\log.py',
   'PYMODULE'),
  ('distutils',
   'c:\\program files\\python35\\lib\\distutils\\__init__.py',
   'PYMODULE'),
  ('distutils.archive_util',
   'c:\\program files\\python35\\lib\\distutils\\archive_util.py',
   'PYMODULE'),
  ('distutils.dir_util',
   'c:\\program files\\python35\\lib\\distutils\\dir_util.py',
   'PYMODULE'),
  ('distutils.file_util',
   'c:\\program files\\python35\\lib\\distutils\\file_util.py',
   'PYMODULE'),
  ('distutils.dep_util',
   'c:\\program files\\python35\\lib\\distutils\\dep_util.py',
   'PYMODULE'),
  ('distutils.ccompiler',
   'c:\\program files\\python35\\lib\\distutils\\ccompiler.py',
   'PYMODULE'),
  ('distutils.fancy_getopt',
   'c:\\program files\\python35\\lib\\distutils\\fancy_getopt.py',
   'PYMODULE'),
  ('distutils.debug',
   'c:\\program files\\python35\\lib\\distutils\\debug.py',
   'PYMODULE'),
  ('distutils.errors',
   'c:\\program files\\python35\\lib\\distutils\\errors.py',
   'PYMODULE'),
  ('PyInstaller.depend.dylib',
   'c:\\program '
   'files\\python35\\lib\\site-packages\\PyInstaller\\depend\\dylib.py',
   'PYMODULE'),
  ('PyInstaller.lib.macholib.MachO',
   'c:\\program '
   'files\\python35\\lib\\site-packages\\PyInstaller\\lib\\macholib\\MachO.py',
   'PYMODULE'),
  ('PyInstaller.lib.macholib.dyld',
   'c:\\program '
   'files\\python35\\lib\\site-packages\\PyInstaller\\lib\\macholib\\dyld.py',
   'PYMODULE'),
  ('PyInstaller.lib.macholib.dylib',
   'c:\\program '
   'files\\python35\\lib\\site-packages\\PyInstaller\\lib\\macholib\\dylib.py',
   'PYMODULE'),
  ('PyInstaller.lib.macholib.framework',
   'c:\\program '
   'files\\python35\\lib\\site-packages\\PyInstaller\\lib\\macholib\\framework.py',
   'PYMODULE'),
  ('PyInstaller.lib.macholib.mach_o',
   'c:\\program '
   'files\\python35\\lib\\site-packages\\PyInstaller\\lib\\macholib\\mach_o.py',
   'PYMODULE'),
  ('PyInstaller.lib.macholib.ptypes',
   'c:\\program '
   'files\\python35\\lib\\site-packages\\PyInstaller\\lib\\macholib\\ptypes.py',
   'PYMODULE'),
  ('PyInstaller.lib.macholib.util',
   'c:\\program '
   'files\\python35\\lib\\site-packages\\PyInstaller\\lib\\macholib\\util.py',
   'PYMODULE'),
  ('PyInstaller.lib.macholib',
   'c:\\program '
   'files\\python35\\lib\\site-packages\\PyInstaller\\lib\\macholib\\__init__.py',
   'PYMODULE'),
  ('PyInstaller.lib.modulegraph.modulegraph',
   'c:\\program '
   'files\\python35\\lib\\site-packages\\PyInstaller\\lib\\modulegraph\\modulegraph.py',
   'PYMODULE'),
  ('PyInstaller.lib.modulegraph.zipio',
   'c:\\program '
   'files\\python35\\lib\\site-packages\\PyInstaller\\lib\\modulegraph\\zipio.py',
   'PYMODULE'),
  ('PyInstaller.lib.modulegraph.util',
   'c:\\program '
   'files\\python35\\lib\\site-packages\\PyInstaller\\lib\\modulegraph\\util.py',
   'PYMODULE'),
  ('PyInstaller.lib.altgraph',
   'c:\\program '
   'files\\python35\\lib\\site-packages\\PyInstaller\\lib\\altgraph\\__init__.py',
   'PYMODULE'),
  ('PyInstaller.lib.altgraph.ObjectGraph',
   'c:\\program '
   'files\\python35\\lib\\site-packages\\PyInstaller\\lib\\altgraph\\ObjectGraph.py',
   'PYMODULE'),
  ('PyInstaller.lib.altgraph.GraphUtil',
   'c:\\program '
   'files\\python35\\lib\\site-packages\\PyInstaller\\lib\\altgraph\\GraphUtil.py',
   'PYMODULE'),
  ('PyInstaller.lib.altgraph.Graph',
   'c:\\program '
   'files\\python35\\lib\\site-packages\\PyInstaller\\lib\\altgraph\\Graph.py',
   'PYMODULE'),
  ('PyInstaller.lib.modulegraph',
   'c:\\program '
   'files\\python35\\lib\\site-packages\\PyInstaller\\lib\\modulegraph\\__init__.py',
   'PYMODULE'),
  ('PyInstaller.building.utils',
   'c:\\program '
   'files\\python35\\lib\\site-packages\\PyInstaller\\building\\utils.py',
   'PYMODULE'),
  ('PyInstaller.building.toc_conversion',
   'c:\\program '
   'files\\python35\\lib\\site-packages\\PyInstaller\\building\\toc_conversion.py',
   'PYMODULE'),
  ('PyInstaller.utils.hooks',
   'c:\\program '
   'files\\python35\\lib\\site-packages\\PyInstaller\\utils\\hooks\\__init__.py',
   'PYMODULE'),
  ('PyInstaller.utils.hooks.win32',
   'c:\\program '
   'files\\python35\\lib\\site-packages\\PyInstaller\\utils\\hooks\\win32.py',
   'PYMODULE'),
  ('PyInstaller.utils.hooks.qt',
   'c:\\program '
   'files\\python35\\lib\\site-packages\\PyInstaller\\utils\\hooks\\qt.py',
   'PYMODULE'),
  ('PyInstaller.utils.hooks.gi',
   'c:\\program '
   'files\\python35\\lib\\site-packages\\PyInstaller\\utils\\hooks\\gi.py',
   'PYMODULE'),
  ('PyInstaller.utils.hooks.django',
   'c:\\program '
   'files\\python35\\lib\\site-packages\\PyInstaller\\utils\\hooks\\django.py',
   'PYMODULE'),
  ('PyInstaller.building.osx',
   'c:\\program '
   'files\\python35\\lib\\site-packages\\PyInstaller\\building\\osx.py',
   'PYMODULE'),
  ('PyInstaller.building.imphook',
   'c:\\program '
   'files\\python35\\lib\\site-packages\\PyInstaller\\building\\imphook.py',
   'PYMODULE'),
  ('PyInstaller.building.imphookapi',
   'c:\\program '
   'files\\python35\\lib\\site-packages\\PyInstaller\\building\\imphookapi.py',
   'PYMODULE'),
  ('PyInstaller.building.datastruct',
   'c:\\program '
   'files\\python35\\lib\\site-packages\\PyInstaller\\building\\datastruct.py',
   'PYMODULE'),
  ('PyInstaller.building.api',
   'c:\\program '
   'files\\python35\\lib\\site-packages\\PyInstaller\\building\\api.py',
   'PYMODULE'),
  ('PyInstaller.utils.osx',
   'c:\\program '
   'files\\python35\\lib\\site-packages\\PyInstaller\\utils\\osx.py',
   'PYMODULE'),
  ('PyInstaller.archive.writers',
   'c:\\program '
   'files\\python35\\lib\\site-packages\\PyInstaller\\archive\\writers.py',
   'PYMODULE'),
  ('PyInstaller.archive.readers',
   'c:\\program '
   'files\\python35\\lib\\site-packages\\PyInstaller\\archive\\readers.py',
   'PYMODULE'),
  ('PyInstaller.loader.pyimod02_archive',
   'c:\\program '
   'files\\python35\\lib\\site-packages\\PyInstaller\\loader\\pyimod02_archive.py',
   'PYMODULE'),
  ('PyInstaller.loader',
   'c:\\program '
   'files\\python35\\lib\\site-packages\\PyInstaller\\loader\\__init__.py',
   'PYMODULE'),
  ('PyInstaller.depend.analysis',
   'c:\\program '
   'files\\python35\\lib\\site-packages\\PyInstaller\\depend\\analysis.py',
   'PYMODULE'),
  ('PyInstaller.lib.modulegraph.find_modules',
   'c:\\program '
   'files\\python35\\lib\\site-packages\\PyInstaller\\lib\\modulegraph\\find_modules.py',
   'PYMODULE'),
  ('xml.etree',
   'c:\\program files\\python35\\lib\\xml\\etree\\__init__.py',
   'PYMODULE'),
  ('PyInstaller.depend.bindepend',
   'c:\\program '
   'files\\python35\\lib\\site-packages\\PyInstaller\\depend\\bindepend.py',
   'PYMODULE'),
  ('PyInstaller.depend',
   'c:\\program '
   'files\\python35\\lib\\site-packages\\PyInstaller\\depend\\__init__.py',
   'PYMODULE'),
  ('PyInstaller.utils.misc',
   'c:\\program '
   'files\\python35\\lib\\site-packages\\PyInstaller\\utils\\misc.py',
   'PYMODULE'),
  ('PyInstaller.building.makespec',
   'c:\\program '
   'files\\python35\\lib\\site-packages\\PyInstaller\\building\\makespec.py',
   'PYMODULE'),
  ('PyInstaller.building.templates',
   'c:\\program '
   'files\\python35\\lib\\site-packages\\PyInstaller\\building\\templates.py',
   'PYMODULE'),
  ('distutils.util',
   'c:\\program files\\python35\\lib\\distutils\\util.py',
   'PYMODULE'),
  ('distutils.filelist',
   'c:\\program files\\python35\\lib\\distutils\\filelist.py',
   'PYMODULE'),
  ('sysconfig', 'c:\\program files\\python35\\lib\\sysconfig.py', 'PYMODULE'),
  ('appdirs',
   'c:\\program files\\python35\\lib\\site-packages\\appdirs.py',
   'PYMODULE'),
  ('win32com.shell.shellcon',
   'c:\\program '
   'files\\python35\\lib\\site-packages\\win32comext\\shell\\shellcon.py',
   'PYMODULE'),
  ('win32com.shell',
   'c:\\program '
   'files\\python35\\lib\\site-packages\\win32comext\\shell\\__init__.py',
   'PYMODULE'),
  ('packaging.markers',
   'c:\\program files\\python35\\lib\\site-packages\\packaging\\markers.py',
   'PYMODULE'),
  ('packaging',
   'c:\\program files\\python35\\lib\\site-packages\\packaging\\__init__.py',
   'PYMODULE'),
  ('packaging.__about__',
   'c:\\program files\\python35\\lib\\site-packages\\packaging\\__about__.py',
   'PYMODULE'),
  ('packaging._compat',
   'c:\\program files\\python35\\lib\\site-packages\\packaging\\_compat.py',
   'PYMODULE'),
  ('pyparsing',
   'c:\\program files\\python35\\lib\\site-packages\\pyparsing.py',
   'PYMODULE'),
  ('uuid', 'c:\\program files\\python35\\lib\\uuid.py', 'PYMODULE'),
  ('netbios',
   'c:\\program files\\python35\\lib\\site-packages\\win32\\lib\\netbios.py',
   'PYMODULE'),
  ('packaging.requirements',
   'c:\\program '
   'files\\python35\\lib\\site-packages\\packaging\\requirements.py',
   'PYMODULE'),
  ('packaging.specifiers',
   'c:\\program files\\python35\\lib\\site-packages\\packaging\\specifiers.py',
   'PYMODULE'),
  ('packaging.version',
   'c:\\program files\\python35\\lib\\site-packages\\packaging\\version.py',
   'PYMODULE'),
  ('packaging._structures',
   'c:\\program files\\python35\\lib\\site-packages\\packaging\\_structures.py',
   'PYMODULE'),
  ('configparser',
   'c:\\program files\\python35\\lib\\configparser.py',
   'PYMODULE'),
  ('six',
   'c:\\program files\\python35\\lib\\site-packages\\six.py',
   'PYMODULE'),
  ('ntpath', 'c:\\program files\\python35\\lib\\ntpath.py', 'PYMODULE'),
  ('_strptime', 'c:\\program files\\python35\\lib\\_strptime.py', 'PYMODULE'),
  ('datetime', 'c:\\program files\\python35\\lib\\datetime.py', 'PYMODULE'),
  ('stringprep', 'c:\\program files\\python35\\lib\\stringprep.py', 'PYMODULE'),
  ('_compat_pickle',
   'c:\\program files\\python35\\lib\\_compat_pickle.py',
   'PYMODULE'),
  ('pickle', 'c:\\program files\\python35\\lib\\pickle.py', 'PYMODULE'),
  ('__future__', 'c:\\program files\\python35\\lib\\__future__.py', 'PYMODULE'),
  ('argparse', 'c:\\program files\\python35\\lib\\argparse.py', 'PYMODULE'),
  ('difflib', 'c:\\program files\\python35\\lib\\difflib.py', 'PYMODULE'),
  ('ast', 'c:\\program files\\python35\\lib\\ast.py', 'PYMODULE'),
  ('imp', 'c:\\program files\\python35\\lib\\imp.py', 'PYMODULE'),
  ('inspect', 'c:\\program files\\python35\\lib\\inspect.py', 'PYMODULE'),
  ('os', 'c:\\program files\\python35\\lib\\os.py', 'PYMODULE'),
  ('cmd', 'c:\\program files\\python35\\lib\\cmd.py', 'PYMODULE'),
  ('bdb', 'c:\\program files\\python35\\lib\\bdb.py', 'PYMODULE'),
  ('opcode', 'c:\\program files\\python35\\lib\\opcode.py', 'PYMODULE'),
  ('dis', 'c:\\program files\\python35\\lib\\dis.py', 'PYMODULE'),
  ('codeop', 'c:\\program files\\python35\\lib\\codeop.py', 'PYMODULE'),
  ('code', 'c:\\program files\\python35\\lib\\code.py', 'PYMODULE'),
  ('glob', 'c:\\program files\\python35\\lib\\glob.py', 'PYMODULE'),
  ('shlex', 'c:\\program files\\python35\\lib\\shlex.py', 'PYMODULE'),
  ('importlib._bootstrap',
   'c:\\program files\\python35\\lib\\importlib\\_bootstrap.py',
   'PYMODULE'),
  ('importlib._bootstrap_external',
   'c:\\program files\\python35\\lib\\importlib\\_bootstrap_external.py',
   'PYMODULE'),
  ('importlib.machinery',
   'c:\\program files\\python35\\lib\\importlib\\machinery.py',
   'PYMODULE'),
  ('importlib.util',
   'c:\\program files\\python35\\lib\\importlib\\util.py',
   'PYMODULE'),
  ('importlib.abc',
   'c:\\program files\\python35\\lib\\importlib\\abc.py',
   'PYMODULE'),
  ('importlib',
   'c:\\program files\\python35\\lib\\importlib\\__init__.py',
   'PYMODULE'),
  ('pkgutil', 'c:\\program files\\python35\\lib\\pkgutil.py', 'PYMODULE'),
  ('ctypes._endian',
   'c:\\program files\\python35\\lib\\ctypes\\_endian.py',
   'PYMODULE'),
  ('ctypes',
   'c:\\program files\\python35\\lib\\ctypes\\__init__.py',
   'PYMODULE'),
  ('ctypes.wintypes',
   'c:\\program files\\python35\\lib\\ctypes\\wintypes.py',
   'PYMODULE'),
  ('xml', 'c:\\program files\\python35\\lib\\xml\\__init__.py', 'PYMODULE'),
  ('xml.parsers',
   'c:\\program files\\python35\\lib\\xml\\parsers\\__init__.py',
   'PYMODULE'),
  ('xml.parsers.expat',
   'c:\\program files\\python35\\lib\\xml\\parsers\\expat.py',
   'PYMODULE'),
  ('plistlib', 'c:\\program files\\python35\\lib\\plistlib.py', 'PYMODULE'),
  ('platform', 'c:\\program files\\python35\\lib\\platform.py', 'PYMODULE'),
  ('urllib.parse',
   'c:\\program files\\python35\\lib\\urllib\\parse.py',
   'PYMODULE'),
  ('tempfile', 'c:\\program files\\python35\\lib\\tempfile.py', 'PYMODULE'),
  ('subprocess', 'c:\\program files\\python35\\lib\\subprocess.py', 'PYMODULE'),
  ('tty', 'c:\\program files\\python35\\lib\\tty.py', 'PYMODULE'),
  ('pydoc_data',
   'c:\\program files\\python35\\lib\\pydoc_data\\__init__.py',
   'PYMODULE'),
  ('pydoc_data.topics',
   'c:\\program files\\python35\\lib\\pydoc_data\\topics.py',
   'PYMODULE'),
  ('textwrap', 'c:\\program files\\python35\\lib\\textwrap.py', 'PYMODULE'),
  ('html.entities',
   'c:\\program files\\python35\\lib\\html\\entities.py',
   'PYMODULE'),
  ('html', 'c:\\program files\\python35\\lib\\html\\__init__.py', 'PYMODULE'),
  ('ipaddress', 'c:\\program files\\python35\\lib\\ipaddress.py', 'PYMODULE'),
  ('ssl', 'c:\\program files\\python35\\lib\\ssl.py', 'PYMODULE'),
  ('http.client',
   'c:\\program files\\python35\\lib\\http\\client.py',
   'PYMODULE'),
  ('mimetypes', 'c:\\program files\\python35\\lib\\mimetypes.py', 'PYMODULE'),
  ('socketserver',
   'c:\\program files\\python35\\lib\\socketserver.py',
   'PYMODULE'),
  ('http', 'c:\\program files\\python35\\lib\\http\\__init__.py', 'PYMODULE'),
  ('http.server',
   'c:\\program files\\python35\\lib\\http\\server.py',
   'PYMODULE'),
  ('uu', 'c:\\program files\\python35\\lib\\uu.py', 'PYMODULE'),
  ('quopri', 'c:\\program files\\python35\\lib\\quopri.py', 'PYMODULE'),
  ('email.feedparser',
   'c:\\program files\\python35\\lib\\email\\feedparser.py',
   'PYMODULE'),
  ('email.parser',
   'c:\\program files\\python35\\lib\\email\\parser.py',
   'PYMODULE'),
  ('email', 'c:\\program files\\python35\\lib\\email\\__init__.py', 'PYMODULE'),
  ('optparse', 'c:\\program files\\python35\\lib\\optparse.py', 'PYMODULE'),
  ('calendar', 'c:\\program files\\python35\\lib\\calendar.py', 'PYMODULE'),
  ('email._parseaddr',
   'c:\\program files\\python35\\lib\\email\\_parseaddr.py',
   'PYMODULE'),
  ('email.utils',
   'c:\\program files\\python35\\lib\\email\\utils.py',
   'PYMODULE'),
  ('email.errors',
   'c:\\program files\\python35\\lib\\email\\errors.py',
   'PYMODULE'),
  ('email.header',
   'c:\\program files\\python35\\lib\\email\\header.py',
   'PYMODULE'),
  ('email._policybase',
   'c:\\program files\\python35\\lib\\email\\_policybase.py',
   'PYMODULE'),
  ('email.base64mime',
   'c:\\program files\\python35\\lib\\email\\base64mime.py',
   'PYMODULE'),
  ('email.encoders',
   'c:\\program files\\python35\\lib\\email\\encoders.py',
   'PYMODULE'),
  ('email.charset',
   'c:\\program files\\python35\\lib\\email\\charset.py',
   'PYMODULE'),
  ('base64', 'c:\\program files\\python35\\lib\\base64.py', 'PYMODULE'),
  ('email._encoded_words',
   'c:\\program files\\python35\\lib\\email\\_encoded_words.py',
   'PYMODULE'),
  ('hashlib', 'c:\\program files\\python35\\lib\\hashlib.py', 'PYMODULE'),
  ('random', 'c:\\program files\\python35\\lib\\random.py', 'PYMODULE'),
  ('email.generator',
   'c:\\program files\\python35\\lib\\email\\generator.py',
   'PYMODULE'),
  ('email.iterators',
   'c:\\program files\\python35\\lib\\email\\iterators.py',
   'PYMODULE'),
  ('urllib',
   'c:\\program files\\python35\\lib\\urllib\\__init__.py',
   'PYMODULE'),
  ('email._header_value_parser',
   'c:\\program files\\python35\\lib\\email\\_header_value_parser.py',
   'PYMODULE'),
  ('email.headerregistry',
   'c:\\program files\\python35\\lib\\email\\headerregistry.py',
   'PYMODULE'),
  ('email.quoprimime',
   'c:\\program files\\python35\\lib\\email\\quoprimime.py',
   'PYMODULE'),
  ('email.contentmanager',
   'c:\\program files\\python35\\lib\\email\\contentmanager.py',
   'PYMODULE'),
  ('email.policy',
   'c:\\program files\\python35\\lib\\email\\policy.py',
   'PYMODULE'),
  ('email.message',
   'c:\\program files\\python35\\lib\\email\\message.py',
   'PYMODULE'),
  ('gzip', 'c:\\program files\\python35\\lib\\gzip.py', 'PYMODULE'),
  ('tarfile', 'c:\\program files\\python35\\lib\\tarfile.py', 'PYMODULE'),
  ('bz2', 'c:\\program files\\python35\\lib\\bz2.py', 'PYMODULE'),
  ('_compression',
   'c:\\program files\\python35\\lib\\_compression.py',
   'PYMODULE'),
  ('lzma', 'c:\\program files\\python35\\lib\\lzma.py', 'PYMODULE'),
  ('dummy_threading',
   'c:\\program files\\python35\\lib\\dummy_threading.py',
   'PYMODULE'),
  ('py_compile', 'c:\\program files\\python35\\lib\\py_compile.py', 'PYMODULE'),
  ('zipfile', 'c:\\program files\\python35\\lib\\zipfile.py', 'PYMODULE'),
  ('shutil', 'c:\\program files\\python35\\lib\\shutil.py', 'PYMODULE'),
  ('selectors', 'c:\\program files\\python35\\lib\\selectors.py', 'PYMODULE'),
  ('socket', 'c:\\program files\\python35\\lib\\socket.py', 'PYMODULE'),
  ('webbrowser', 'c:\\program files\\python35\\lib\\webbrowser.py', 'PYMODULE'),
  ('pydoc', 'c:\\program files\\python35\\lib\\pydoc.py', 'PYMODULE'),
  ('struct', 'c:\\program files\\python35\\lib\\struct.py', 'PYMODULE'),
  ('token', 'c:\\program files\\python35\\lib\\token.py', 'PYMODULE'),
  ('tokenize', 'c:\\program files\\python35\\lib\\tokenize.py', 'PYMODULE'),
  ('gettext', 'c:\\program files\\python35\\lib\\gettext.py', 'PYMODULE'),
  ('getopt', 'c:\\program files\\python35\\lib\\getopt.py', 'PYMODULE'),
  ('pdb', 'c:\\program files\\python35\\lib\\pdb.py', 'PYMODULE'),
  ('unittest.util',
   'c:\\program files\\python35\\lib\\unittest\\util.py',
   'PYMODULE'),
  ('unittest.result',
   'c:\\program files\\python35\\lib\\unittest\\result.py',
   'PYMODULE'),
  ('string', 'c:\\program files\\python35\\lib\\string.py', 'PYMODULE'),
  ('_threading_local',
   'c:\\program files\\python35\\lib\\_threading_local.py',
   'PYMODULE'),
  ('threading', 'c:\\program files\\python35\\lib\\threading.py', 'PYMODULE'),
  ('logging',
   'c:\\program files\\python35\\lib\\logging\\__init__.py',
   'PYMODULE'),
  ('pprint', 'c:\\program files\\python35\\lib\\pprint.py', 'PYMODULE'),
  ('contextlib', 'c:\\program files\\python35\\lib\\contextlib.py', 'PYMODULE'),
  ('unittest.case',
   'c:\\program files\\python35\\lib\\unittest\\case.py',
   'PYMODULE'),
  ('unittest.suite',
   'c:\\program files\\python35\\lib\\unittest\\suite.py',
   'PYMODULE'),
  ('stat', 'c:\\program files\\python35\\lib\\stat.py', 'PYMODULE'),
  ('genericpath',
   'c:\\program files\\python35\\lib\\genericpath.py',
   'PYMODULE'),
  ('posixpath', 'c:\\program files\\python35\\lib\\posixpath.py', 'PYMODULE'),
  ('fnmatch', 'c:\\program files\\python35\\lib\\fnmatch.py', 'PYMODULE'),
  ('unittest.loader',
   'c:\\program files\\python35\\lib\\unittest\\loader.py',
   'PYMODULE'),
  ('warnings', 'c:\\program files\\python35\\lib\\warnings.py', 'PYMODULE'),
  ('unittest.runner',
   'c:\\program files\\python35\\lib\\unittest\\runner.py',
   'PYMODULE'),
  ('unittest.main',
   'c:\\program files\\python35\\lib\\unittest\\main.py',
   'PYMODULE'),
  ('enum', 'c:\\program files\\python35\\lib\\enum.py', 'PYMODULE'),
  ('signal', 'c:\\program files\\python35\\lib\\signal.py', 'PYMODULE'),
  ('unittest.signals',
   'c:\\program files\\python35\\lib\\unittest\\signals.py',
   'PYMODULE'),
  ('unittest',
   'c:\\program files\\python35\\lib\\unittest\\__init__.py',
   'PYMODULE'),
  ('doctest', 'c:\\program files\\python35\\lib\\doctest.py', 'PYMODULE'),
  ('copy', 'c:\\program files\\python35\\lib\\copy.py', 'PYMODULE'),
  ('_dummy_thread',
   'c:\\program files\\python35\\lib\\_dummy_thread.py',
   'PYMODULE'),
  ('numpy',
   'c:\\program files\\python35\\lib\\site-packages\\numpy\\__init__.py',
   'PYMODULE'),
  ('numpy.matrixlib',
   'c:\\program '
   'files\\python35\\lib\\site-packages\\numpy\\matrixlib\\__init__.py',
   'PYMODULE'),
  ('numpy.testing.nosetester',
   'c:\\program '
   'files\\python35\\lib\\site-packages\\numpy\\testing\\nosetester.py',
   'PYMODULE'),
  ('numpy.distutils.cpuinfo',
   'c:\\program '
   'files\\python35\\lib\\site-packages\\numpy\\distutils\\cpuinfo.py',
   'PYMODULE'),
  ('numpy.distutils.compat',
   'c:\\program '
   'files\\python35\\lib\\site-packages\\numpy\\distutils\\compat.py',
   'PYMODULE'),
  ('numpy.distutils',
   'c:\\program '
   'files\\python35\\lib\\site-packages\\numpy\\distutils\\__init__.py',
   'PYMODULE'),
  ('numpy.distutils.__config__',
   'c:\\program '
   'files\\python35\\lib\\site-packages\\numpy\\distutils\\__config__.py',
   'PYMODULE'),
  ('numpy.distutils.npy_pkg_config',
   'c:\\program '
   'files\\python35\\lib\\site-packages\\numpy\\distutils\\npy_pkg_config.py',
   'PYMODULE'),
  ('numpy.distutils.info',
   'c:\\program files\\python35\\lib\\site-packages\\numpy\\distutils\\info.py',
   'PYMODULE'),
  ('numpy.distutils.unixccompiler',
   'c:\\program '
   'files\\python35\\lib\\site-packages\\numpy\\distutils\\unixccompiler.py',
   'PYMODULE'),
  ('distutils.unixccompiler',
   'c:\\program files\\python35\\lib\\distutils\\unixccompiler.py',
   'PYMODULE'),
  ('numpy.distutils.ccompiler',
   'c:\\program '
   'files\\python35\\lib\\site-packages\\numpy\\distutils\\ccompiler.py',
   'PYMODULE'),
  ('numpy.distutils.fcompiler',
   'c:\\program '
   'files\\python35\\lib\\site-packages\\numpy\\distutils\\fcompiler\\__init__.py',
   'PYMODULE'),
  ('numpy.distutils.command.config_compiler',
   'c:\\program '
   'files\\python35\\lib\\site-packages\\numpy\\distutils\\command\\config_compiler.py',
   'PYMODULE'),
  ('numpy.distutils.command',
   'c:\\program '
   'files\\python35\\lib\\site-packages\\numpy\\distutils\\command\\__init__.py',
   'PYMODULE'),
  ('numpy.distutils.command.develop',
   'c:\\program '
   'files\\python35\\lib\\site-packages\\numpy\\distutils\\command\\develop.py',
   'PYMODULE'),
  ('setuptools.command.develop',
   'c:\\program '
   'files\\python35\\lib\\site-packages\\setuptools\\command\\develop.py',
   'PYMODULE'),
  ('setuptools.command',
   'c:\\program '
   'files\\python35\\lib\\site-packages\\setuptools\\command\\__init__.py',
   'PYMODULE'),
  ('setuptools.command.install_scripts',
   'c:\\program '
   'files\\python35\\lib\\site-packages\\setuptools\\command\\install_scripts.py',
   'PYMODULE'),
  ('distutils.command.install_scripts',
   'c:\\program files\\python35\\lib\\distutils\\command\\install_scripts.py',
   'PYMODULE'),
  ('distutils.command',
   'c:\\program files\\python35\\lib\\distutils\\command\\__init__.py',
   'PYMODULE'),
  ('setuptools.command.egg_info',
   'c:\\program '
   'files\\python35\\lib\\site-packages\\setuptools\\command\\egg_info.py',
   'PYMODULE'),
  ('setuptools.glob',
   'c:\\program files\\python35\\lib\\site-packages\\setuptools\\glob.py',
   'PYMODULE'),
  ('setuptools.unicode_utils',
   'c:\\program '
   'files\\python35\\lib\\site-packages\\setuptools\\unicode_utils.py',
   'PYMODULE'),
  ('setuptools.command.sdist',
   'c:\\program '
   'files\\python35\\lib\\site-packages\\setuptools\\command\\sdist.py',
   'PYMODULE'),
  ('setuptools.command.py36compat',
   'c:\\program '
   'files\\python35\\lib\\site-packages\\setuptools\\command\\py36compat.py',
   'PYMODULE'),
  ('distutils.command.sdist',
   'c:\\program files\\python35\\lib\\distutils\\command\\sdist.py',
   'PYMODULE'),
  ('setuptools.command.bdist_egg',
   'c:\\program '
   'files\\python35\\lib\\site-packages\\setuptools\\command\\bdist_egg.py',
   'PYMODULE'),
  ('setuptools.extension',
   'c:\\program files\\python35\\lib\\site-packages\\setuptools\\extension.py',
   'PYMODULE'),
  ('setuptools.monkey',
   'c:\\program files\\python35\\lib\\site-packages\\setuptools\\monkey.py',
   'PYMODULE'),
  ('setuptools.py26compat',
   'c:\\program files\\python35\\lib\\site-packages\\setuptools\\py26compat.py',
   'PYMODULE'),
  ('distutils.extension',
   'c:\\program files\\python35\\lib\\distutils\\extension.py',
   'PYMODULE'),
  ('setuptools.command.setopt',
   'c:\\program '
   'files\\python35\\lib\\site-packages\\setuptools\\command\\setopt.py',
   'PYMODULE'),
  ('distutils.command.bdist',
   'c:\\program files\\python35\\lib\\distutils\\command\\bdist.py',
   'PYMODULE'),
  ('setuptools.namespaces',
   'c:\\program files\\python35\\lib\\site-packages\\setuptools\\namespaces.py',
   'PYMODULE'),
  ('setuptools',
   'c:\\program files\\python35\\lib\\site-packages\\setuptools\\__init__.py',
   'PYMODULE'),
  ('distutils.command.build_ext',
   'c:\\program files\\python35\\lib\\distutils\\command\\build_ext.py',
   'PYMODULE'),
  ('distutils._msvccompiler',
   'c:\\program files\\python35\\lib\\distutils\\_msvccompiler.py',
   'PYMODULE'),
  ('concurrent.futures',
   'c:\\program files\\python35\\lib\\concurrent\\futures\\__init__.py',
   'PYMODULE'),
  ('concurrent.futures.thread',
   'c:\\program files\\python35\\lib\\concurrent\\futures\\thread.py',
   'PYMODULE'),
  ('concurrent.futures.process',
   'c:\\program files\\python35\\lib\\concurrent\\futures\\process.py',
   'PYMODULE'),
  ('concurrent.futures._base',
   'c:\\program files\\python35\\lib\\concurrent\\futures\\_base.py',
   'PYMODULE'),
  ('concurrent',
   'c:\\program files\\python35\\lib\\concurrent\\__init__.py',
   'PYMODULE'),
  ('setuptools.depends',
   'c:\\program files\\python35\\lib\\site-packages\\setuptools\\depends.py',
   'PYMODULE'),
  ('setuptools.py33compat',
   'c:\\program files\\python35\\lib\\site-packages\\setuptools\\py33compat.py',
   'PYMODULE'),
  ('setuptools.dist',
   'c:\\program files\\python35\\lib\\site-packages\\setuptools\\dist.py',
   'PYMODULE'),
  ('setuptools.py36compat',
   'c:\\program files\\python35\\lib\\site-packages\\setuptools\\py36compat.py',
   'PYMODULE'),
  ('setuptools.config',
   'c:\\program files\\python35\\lib\\site-packages\\setuptools\\config.py',
   'PYMODULE'),
  ('distutils.cmd',
   'c:\\program files\\python35\\lib\\distutils\\cmd.py',
   'PYMODULE'),
  ('setuptools.ssl_support',
   'c:\\program '
   'files\\python35\\lib\\site-packages\\setuptools\\ssl_support.py',
   'PYMODULE'),
  ('setuptools.windows_support',
   'c:\\program '
   'files\\python35\\lib\\site-packages\\setuptools\\windows_support.py',
   'PYMODULE'),
  ('setuptools.version',
   'c:\\program files\\python35\\lib\\site-packages\\setuptools\\version.py',
   'PYMODULE'),
  ('setuptools.command.easy_install',
   'c:\\program '
   'files\\python35\\lib\\site-packages\\setuptools\\command\\easy_install.py',
   'PYMODULE'),
  ('setuptools.package_index',
   'c:\\program '
   'files\\python35\\lib\\site-packages\\setuptools\\package_index.py',
   'PYMODULE'),
  ('setuptools.archive_util',
   'c:\\program '
   'files\\python35\\lib\\site-packages\\setuptools\\archive_util.py',
   'PYMODULE'),
  ('setuptools.py27compat',
   'c:\\program files\\python35\\lib\\site-packages\\setuptools\\py27compat.py',
   'PYMODULE'),
  ('setuptools.py31compat',
   'c:\\program files\\python35\\lib\\site-packages\\setuptools\\py31compat.py',
   'PYMODULE'),
  ('setuptools.sandbox',
   'c:\\program files\\python35\\lib\\site-packages\\setuptools\\sandbox.py',
   'PYMODULE'),
  ('distutils.command.build_scripts',
   'c:\\program files\\python35\\lib\\distutils\\command\\build_scripts.py',
   'PYMODULE'),
  ('distutils.command.install',
   'c:\\program files\\python35\\lib\\distutils\\command\\install.py',
   'PYMODULE'),
  ('numpy.distutils.command.egg_info',
   'c:\\program '
   'files\\python35\\lib\\site-packages\\numpy\\distutils\\command\\egg_info.py',
   'PYMODULE'),
  ('numpy.distutils.command.build_clib',
   'c:\\program '
   'files\\python35\\lib\\site-packages\\numpy\\distutils\\command\\build_clib.py',
   'PYMODULE'),
  ('distutils.command.build_clib',
   'c:\\program files\\python35\\lib\\distutils\\command\\build_clib.py',
   'PYMODULE'),
  ('numpy.distutils.command.build_scripts',
   'c:\\program '
   'files\\python35\\lib\\site-packages\\numpy\\distutils\\command\\build_scripts.py',
   'PYMODULE'),
  ('numpy.distutils.command.install_clib',
   'c:\\program '
   'files\\python35\\lib\\site-packages\\numpy\\distutils\\command\\install_clib.py',
   'PYMODULE'),
  ('numpy.distutils.command.install_data',
   'c:\\program '
   'files\\python35\\lib\\site-packages\\numpy\\distutils\\command\\install_data.py',
   'PYMODULE'),
  ('distutils.command.install_data',
   'c:\\program files\\python35\\lib\\distutils\\command\\install_data.py',
   'PYMODULE'),
  ('numpy.distutils.command.install_headers',
   'c:\\program '
   'files\\python35\\lib\\site-packages\\numpy\\distutils\\command\\install_headers.py',
   'PYMODULE'),
  ('distutils.command.install_headers',
   'c:\\program files\\python35\\lib\\distutils\\command\\install_headers.py',
   'PYMODULE'),
  ('numpy.distutils.command.bdist_rpm',
   'c:\\program '
   'files\\python35\\lib\\site-packages\\numpy\\distutils\\command\\bdist_rpm.py',
   'PYMODULE'),
  ('distutils.command.bdist_rpm',
   'c:\\program files\\python35\\lib\\distutils\\command\\bdist_rpm.py',
   'PYMODULE'),
  ('setuptools.command.bdist_rpm',
   'c:\\program '
   'files\\python35\\lib\\site-packages\\setuptools\\command\\bdist_rpm.py',
   'PYMODULE'),
  ('numpy.distutils.command.sdist',
   'c:\\program '
   'files\\python35\\lib\\site-packages\\numpy\\distutils\\command\\sdist.py',
   'PYMODULE'),
  ('numpy.distutils.command.install',
   'c:\\program '
   'files\\python35\\lib\\site-packages\\numpy\\distutils\\command\\install.py',
   'PYMODULE'),
  ('setuptools.command.install',
   'c:\\program '
   'files\\python35\\lib\\site-packages\\setuptools\\command\\install.py',
   'PYMODULE'),
  ('numpy.distutils.command.build_ext',
   'c:\\program '
   'files\\python35\\lib\\site-packages\\numpy\\distutils\\command\\build_ext.py',
   'PYMODULE'),
  ('numpy.distutils.system_info',
   'c:\\program '
   'files\\python35\\lib\\site-packages\\numpy\\distutils\\system_info.py',
   'PYMODULE'),
  ('numpy.f2py',
   'c:\\program files\\python35\\lib\\site-packages\\numpy\\f2py\\__init__.py',
   'PYMODULE'),
  ('numpy.f2py.diagnose',
   'c:\\program files\\python35\\lib\\site-packages\\numpy\\f2py\\diagnose.py',
   'PYMODULE'),
  ('numpy.f2py.f2py_testing',
   'c:\\program '
   'files\\python35\\lib\\site-packages\\numpy\\f2py\\f2py_testing.py',
   'PYMODULE'),
  ('numpy.f2py.f2py2e',
   'c:\\program files\\python35\\lib\\site-packages\\numpy\\f2py\\f2py2e.py',
   'PYMODULE'),
  ('numpy.distutils.command.build_src',
   'c:\\program '
   'files\\python35\\lib\\site-packages\\numpy\\distutils\\command\\build_src.py',
   'PYMODULE'),
  ('numpy.distutils.conv_template',
   'c:\\program '
   'files\\python35\\lib\\site-packages\\numpy\\distutils\\conv_template.py',
   'PYMODULE'),
  ('numpy.distutils.from_template',
   'c:\\program '
   'files\\python35\\lib\\site-packages\\numpy\\distutils\\from_template.py',
   'PYMODULE'),
  ('numpy.f2py.auxfuncs',
   'c:\\program files\\python35\\lib\\site-packages\\numpy\\f2py\\auxfuncs.py',
   'PYMODULE'),
  ('numpy.f2py.f90mod_rules',
   'c:\\program '
   'files\\python35\\lib\\site-packages\\numpy\\f2py\\f90mod_rules.py',
   'PYMODULE'),
  ('numpy.f2py.rules',
   'c:\\program files\\python35\\lib\\site-packages\\numpy\\f2py\\rules.py',
   'PYMODULE'),
  ('numpy.f2py.use_rules',
   'c:\\program files\\python35\\lib\\site-packages\\numpy\\f2py\\use_rules.py',
   'PYMODULE'),
  ('numpy.f2py.common_rules',
   'c:\\program '
   'files\\python35\\lib\\site-packages\\numpy\\f2py\\common_rules.py',
   'PYMODULE'),
  ('numpy.f2py.func2subr',
   'c:\\program files\\python35\\lib\\site-packages\\numpy\\f2py\\func2subr.py',
   'PYMODULE'),
  ('numpy.f2py.crackfortran',
   'c:\\program '
   'files\\python35\\lib\\site-packages\\numpy\\f2py\\crackfortran.py',
   'PYMODULE'),
  ('fileinput', 'c:\\program files\\python35\\lib\\fileinput.py', 'PYMODULE'),
  ('numpy.f2py.cb_rules',
   'c:\\program files\\python35\\lib\\site-packages\\numpy\\f2py\\cb_rules.py',
   'PYMODULE'),
  ('numpy.f2py.capi_maps',
   'c:\\program files\\python35\\lib\\site-packages\\numpy\\f2py\\capi_maps.py',
   'PYMODULE'),
  ('numpy.f2py.cfuncs',
   'c:\\program files\\python35\\lib\\site-packages\\numpy\\f2py\\cfuncs.py',
   'PYMODULE'),
  ('numpy.f2py.__version__',
   'c:\\program '
   'files\\python35\\lib\\site-packages\\numpy\\f2py\\__version__.py',
   'PYMODULE'),
  ('numpy.distutils.command.config',
   'c:\\program '
   'files\\python35\\lib\\site-packages\\numpy\\distutils\\command\\config.py',
   'PYMODULE'),
  ('distutils.msvc9compiler',
   'c:\\program files\\python35\\lib\\distutils\\msvc9compiler.py',
   'PYMODULE'),
  ('numpy.distutils.command.autodist',
   'c:\\program '
   'files\\python35\\lib\\site-packages\\numpy\\distutils\\command\\autodist.py',
   'PYMODULE'),
  ('numpy.distutils.mingw32ccompiler',
   'c:\\program '
   'files\\python35\\lib\\site-packages\\numpy\\distutils\\mingw32ccompiler.py',
   'PYMODULE'),
  ('distutils.msvccompiler',
   'c:\\program files\\python35\\lib\\distutils\\msvccompiler.py',
   'PYMODULE'),
  ('distutils.cygwinccompiler',
   'c:\\program files\\python35\\lib\\distutils\\cygwinccompiler.py',
   'PYMODULE'),
  ('distutils.command.config',
   'c:\\program files\\python35\\lib\\distutils\\command\\config.py',
   'PYMODULE'),
  ('numpy.distutils.command.build',
   'c:\\program '
   'files\\python35\\lib\\site-packages\\numpy\\distutils\\command\\build.py',
   'PYMODULE'),
  ('distutils.command.build',
   'c:\\program files\\python35\\lib\\distutils\\command\\build.py',
   'PYMODULE'),
  ('numpy.distutils.command.build_py',
   'c:\\program '
   'files\\python35\\lib\\site-packages\\numpy\\distutils\\command\\build_py.py',
   'PYMODULE'),
  ('distutils.command.build_py',
   'c:\\program files\\python35\\lib\\distutils\\command\\build_py.py',
   'PYMODULE'),
  ('distutils.core',
   'c:\\program files\\python35\\lib\\distutils\\core.py',
   'PYMODULE'),
  ('distutils.config',
   'c:\\program files\\python35\\lib\\distutils\\config.py',
   'PYMODULE'),
  ('cgi', 'c:\\program files\\python35\\lib\\cgi.py', 'PYMODULE'),
  ('distutils.dist',
   'c:\\program files\\python35\\lib\\distutils\\dist.py',
   'PYMODULE'),
  ('distutils.versionpredicate',
   'c:\\program files\\python35\\lib\\distutils\\versionpredicate.py',
   'PYMODULE'),
  ('numpy.distutils.core',
   'c:\\program files\\python35\\lib\\site-packages\\numpy\\distutils\\core.py',
   'PYMODULE'),
  ('numpy.distutils.numpy_distribution',
   'c:\\program '
   'files\\python35\\lib\\site-packages\\numpy\\distutils\\numpy_distribution.py',
   'PYMODULE'),
  ('numpy.distutils.extension',
   'c:\\program '
   'files\\python35\\lib\\site-packages\\numpy\\distutils\\extension.py',
   'PYMODULE'),
  ('numpy.distutils.environment',
   'c:\\program '
   'files\\python35\\lib\\site-packages\\numpy\\distutils\\environment.py',
   'PYMODULE'),
  ('numpy.distutils.misc_util',
   'c:\\program '
   'files\\python35\\lib\\site-packages\\numpy\\distutils\\misc_util.py',
   'PYMODULE'),
  ('curses',
   'c:\\program files\\python35\\lib\\curses\\__init__.py',
   'PYMODULE'),
  ('curses.has_key',
   'c:\\program files\\python35\\lib\\curses\\has_key.py',
   'PYMODULE'),
  ('numpy.distutils.exec_command',
   'c:\\program '
   'files\\python35\\lib\\site-packages\\numpy\\distutils\\exec_command.py',
   'PYMODULE'),
  ('distutils.version',
   'c:\\program files\\python35\\lib\\distutils\\version.py',
   'PYMODULE'),
  ('numpy.distutils.lib2def',
   'c:\\program '
   'files\\python35\\lib\\site-packages\\numpy\\distutils\\lib2def.py',
   'PYMODULE'),
  ('numpy.distutils.log',
   'c:\\program files\\python35\\lib\\site-packages\\numpy\\distutils\\log.py',
   'PYMODULE'),
  ('numpy.distutils.__version__',
   'c:\\program '
   'files\\python35\\lib\\site-packages\\numpy\\distutils\\__version__.py',
   'PYMODULE'),
  ('numpy.testing.noseclasses',
   'c:\\program '
   'files\\python35\\lib\\site-packages\\numpy\\testing\\noseclasses.py',
   'PYMODULE'),
  ('numpy.testing.utils',
   'c:\\program files\\python35\\lib\\site-packages\\numpy\\testing\\utils.py',
   'PYMODULE'),
  ('numpy.core.fromnumeric',
   'c:\\program '
   'files\\python35\\lib\\site-packages\\numpy\\core\\fromnumeric.py',
   'PYMODULE'),
  ('numpy.core._methods',
   'c:\\program files\\python35\\lib\\site-packages\\numpy\\core\\_methods.py',
   'PYMODULE'),
  ('numpy.core.numeric',
   'c:\\program files\\python35\\lib\\site-packages\\numpy\\core\\numeric.py',
   'PYMODULE'),
  ('numpy.core.arrayprint',
   'c:\\program '
   'files\\python35\\lib\\site-packages\\numpy\\core\\arrayprint.py',
   'PYMODULE'),
  ('numpy.core._internal',
   'c:\\program files\\python35\\lib\\site-packages\\numpy\\core\\_internal.py',
   'PYMODULE'),
  ('numpy.core.numerictypes',
   'c:\\program '
   'files\\python35\\lib\\site-packages\\numpy\\core\\numerictypes.py',
   'PYMODULE'),
  ('numpy.lib.utils',
   'c:\\program files\\python35\\lib\\site-packages\\numpy\\lib\\utils.py',
   'PYMODULE'),
  ('numpy.matrixlib.defmatrix',
   'c:\\program '
   'files\\python35\\lib\\site-packages\\numpy\\matrixlib\\defmatrix.py',
   'PYMODULE'),
  ('numpy.dual',
   'c:\\program files\\python35\\lib\\site-packages\\numpy\\dual.py',
   'PYMODULE'),
  ('numpy.ma',
   'c:\\program files\\python35\\lib\\site-packages\\numpy\\ma\\__init__.py',
   'PYMODULE'),
  ('numpy.ma.extras',
   'c:\\program files\\python35\\lib\\site-packages\\numpy\\ma\\extras.py',
   'PYMODULE'),
  ('numpy.lib.index_tricks',
   'c:\\program '
   'files\\python35\\lib\\site-packages\\numpy\\lib\\index_tricks.py',
   'PYMODULE'),
  ('numpy.lib.stride_tricks',
   'c:\\program '
   'files\\python35\\lib\\site-packages\\numpy\\lib\\stride_tricks.py',
   'PYMODULE'),
  ('numpy.lib.function_base',
   'c:\\program '
   'files\\python35\\lib\\site-packages\\numpy\\lib\\function_base.py',
   'PYMODULE'),
  ('numpy.compat.py3k',
   'c:\\program files\\python35\\lib\\site-packages\\numpy\\compat\\py3k.py',
   'PYMODULE'),
  ('pathlib', 'c:\\program files\\python35\\lib\\pathlib.py', 'PYMODULE'),
  ('numpy.lib.twodim_base',
   'c:\\program '
   'files\\python35\\lib\\site-packages\\numpy\\lib\\twodim_base.py',
   'PYMODULE'),
  ('numpy.ma.core',
   'c:\\program files\\python35\\lib\\site-packages\\numpy\\ma\\core.py',
   'PYMODULE'),
  ('numpy.ctypeslib',
   'c:\\program files\\python35\\lib\\site-packages\\numpy\\ctypeslib.py',
   'PYMODULE'),
  ('numpy.random',
   'c:\\program '
   'files\\python35\\lib\\site-packages\\numpy\\random\\__init__.py',
   'PYMODULE'),
  ('numpy.random.info',
   'c:\\program files\\python35\\lib\\site-packages\\numpy\\random\\info.py',
   'PYMODULE'),
  ('numpy.polynomial',
   'c:\\program '
   'files\\python35\\lib\\site-packages\\numpy\\polynomial\\__init__.py',
   'PYMODULE'),
  ('numpy.polynomial.laguerre',
   'c:\\program '
   'files\\python35\\lib\\site-packages\\numpy\\polynomial\\laguerre.py',
   'PYMODULE'),
  ('numpy.polynomial._polybase',
   'c:\\program '
   'files\\python35\\lib\\site-packages\\numpy\\polynomial\\_polybase.py',
   'PYMODULE'),
  ('numpy.polynomial.hermite_e',
   'c:\\program '
   'files\\python35\\lib\\site-packages\\numpy\\polynomial\\hermite_e.py',
   'PYMODULE'),
  ('numpy.polynomial.hermite',
   'c:\\program '
   'files\\python35\\lib\\site-packages\\numpy\\polynomial\\hermite.py',
   'PYMODULE'),
  ('numpy.polynomial.legendre',
   'c:\\program '
   'files\\python35\\lib\\site-packages\\numpy\\polynomial\\legendre.py',
   'PYMODULE'),
  ('numpy.polynomial.chebyshev',
   'c:\\program '
   'files\\python35\\lib\\site-packages\\numpy\\polynomial\\chebyshev.py',
   'PYMODULE'),
  ('numpy.polynomial.polynomial',
   'c:\\program '
   'files\\python35\\lib\\site-packages\\numpy\\polynomial\\polynomial.py',
   'PYMODULE'),
  ('numpy.polynomial.polyutils',
   'c:\\program '
   'files\\python35\\lib\\site-packages\\numpy\\polynomial\\polyutils.py',
   'PYMODULE'),
  ('numpy.fft',
   'c:\\program files\\python35\\lib\\site-packages\\numpy\\fft\\__init__.py',
   'PYMODULE'),
  ('numpy.fft.helper',
   'c:\\program files\\python35\\lib\\site-packages\\numpy\\fft\\helper.py',
   'PYMODULE'),
  ('numpy.fft.fftpack',
   'c:\\program files\\python35\\lib\\site-packages\\numpy\\fft\\fftpack.py',
   'PYMODULE'),
  ('numpy.fft.info',
   'c:\\program files\\python35\\lib\\site-packages\\numpy\\fft\\info.py',
   'PYMODULE'),
  ('numpy.linalg',
   'c:\\program '
   'files\\python35\\lib\\site-packages\\numpy\\linalg\\__init__.py',
   'PYMODULE'),
  ('numpy.linalg.linalg',
   'c:\\program files\\python35\\lib\\site-packages\\numpy\\linalg\\linalg.py',
   'PYMODULE'),
  ('numpy.linalg.info',
   'c:\\program files\\python35\\lib\\site-packages\\numpy\\linalg\\info.py',
   'PYMODULE'),
  ('numpy.lib',
   'c:\\program files\\python35\\lib\\site-packages\\numpy\\lib\\__init__.py',
   'PYMODULE'),
  ('numpy.lib._version',
   'c:\\program files\\python35\\lib\\site-packages\\numpy\\lib\\_version.py',
   'PYMODULE'),
  ('numpy.lib.arraypad',
   'c:\\program files\\python35\\lib\\site-packages\\numpy\\lib\\arraypad.py',
   'PYMODULE'),
  ('numpy.lib.arrayterator',
   'c:\\program '
   'files\\python35\\lib\\site-packages\\numpy\\lib\\arrayterator.py',
   'PYMODULE'),
  ('numpy.lib.financial',
   'c:\\program files\\python35\\lib\\site-packages\\numpy\\lib\\financial.py',
   'PYMODULE'),
  ('numpy.lib.npyio',
   'c:\\program files\\python35\\lib\\site-packages\\numpy\\lib\\npyio.py',
   'PYMODULE'),
  ('numpy.ma.mrecords',
   'c:\\program files\\python35\\lib\\site-packages\\numpy\\ma\\mrecords.py',
   'PYMODULE'),
  ('numpy.core.records',
   'c:\\program files\\python35\\lib\\site-packages\\numpy\\core\\records.py',
   'PYMODULE'),
  ('numpy.lib._iotools',
   'c:\\program files\\python35\\lib\\site-packages\\numpy\\lib\\_iotools.py',
   'PYMODULE'),
  ('numpy.lib._datasource',
   'c:\\program '
   'files\\python35\\lib\\site-packages\\numpy\\lib\\_datasource.py',
   'PYMODULE'),
  ('numpy.lib.format',
   'c:\\program files\\python35\\lib\\site-packages\\numpy\\lib\\format.py',
   'PYMODULE'),
  ('numpy.lib.arraysetops',
   'c:\\program '
   'files\\python35\\lib\\site-packages\\numpy\\lib\\arraysetops.py',
   'PYMODULE'),
  ('numpy.lib.polynomial',
   'c:\\program files\\python35\\lib\\site-packages\\numpy\\lib\\polynomial.py',
   'PYMODULE'),
  ('numpy.lib.scimath',
   'c:\\program files\\python35\\lib\\site-packages\\numpy\\lib\\scimath.py',
   'PYMODULE'),
  ('numpy.lib.ufunclike',
   'c:\\program files\\python35\\lib\\site-packages\\numpy\\lib\\ufunclike.py',
   'PYMODULE'),
  ('numpy.lib.shape_base',
   'c:\\program files\\python35\\lib\\site-packages\\numpy\\lib\\shape_base.py',
   'PYMODULE'),
  ('numpy.lib.nanfunctions',
   'c:\\program '
   'files\\python35\\lib\\site-packages\\numpy\\lib\\nanfunctions.py',
   'PYMODULE'),
  ('numpy.lib.type_check',
   'c:\\program files\\python35\\lib\\site-packages\\numpy\\lib\\type_check.py',
   'PYMODULE'),
  ('numpy.core.getlimits',
   'c:\\program files\\python35\\lib\\site-packages\\numpy\\core\\getlimits.py',
   'PYMODULE'),
  ('numpy.core.machar',
   'c:\\program files\\python35\\lib\\site-packages\\numpy\\core\\machar.py',
   'PYMODULE'),
  ('numpy.lib.info',
   'c:\\program files\\python35\\lib\\site-packages\\numpy\\lib\\info.py',
   'PYMODULE'),
  ('numpy.compat',
   'c:\\program '
   'files\\python35\\lib\\site-packages\\numpy\\compat\\__init__.py',
   'PYMODULE'),
  ('numpy.compat._inspect',
   'c:\\program '
   'files\\python35\\lib\\site-packages\\numpy\\compat\\_inspect.py',
   'PYMODULE'),
  ('numpy.core',
   'c:\\program files\\python35\\lib\\site-packages\\numpy\\core\\__init__.py',
   'PYMODULE'),
  ('numpy.core.einsumfunc',
   'c:\\program '
   'files\\python35\\lib\\site-packages\\numpy\\core\\einsumfunc.py',
   'PYMODULE'),
  ('numpy.core.shape_base',
   'c:\\program '
   'files\\python35\\lib\\site-packages\\numpy\\core\\shape_base.py',
   'PYMODULE'),
  ('numpy.core.function_base',
   'c:\\program '
   'files\\python35\\lib\\site-packages\\numpy\\core\\function_base.py',
   'PYMODULE'),
  ('numpy.core.memmap',
   'c:\\program files\\python35\\lib\\site-packages\\numpy\\core\\memmap.py',
   'PYMODULE'),
  ('numpy.core.defchararray',
   'c:\\program '
   'files\\python35\\lib\\site-packages\\numpy\\core\\defchararray.py',
   'PYMODULE'),
  ('numpy.core.info',
   'c:\\program files\\python35\\lib\\site-packages\\numpy\\core\\info.py',
   'PYMODULE'),
  ('numpy._distributor_init',
   'c:\\program '
   'files\\python35\\lib\\site-packages\\numpy\\_distributor_init.py',
   'PYMODULE'),
  ('numpy.testing',
   'c:\\program '
   'files\\python35\\lib\\site-packages\\numpy\\testing\\__init__.py',
   'PYMODULE'),
  ('numpy.testing.decorators',
   'c:\\program '
   'files\\python35\\lib\\site-packages\\numpy\\testing\\decorators.py',
   'PYMODULE'),
  ('numpy.add_newdocs',
   'c:\\program files\\python35\\lib\\site-packages\\numpy\\add_newdocs.py',
   'PYMODULE'),
  ('numpy._import_tools',
   'c:\\program files\\python35\\lib\\site-packages\\numpy\\_import_tools.py',
   'PYMODULE'),
  ('numpy.version',
   'c:\\program files\\python35\\lib\\site-packages\\numpy\\version.py',
   'PYMODULE'),
  ('numpy.__config__',
   'c:\\program files\\python35\\lib\\site-packages\\numpy\\__config__.py',
   'PYMODULE'),
  ('numpy._globals',
   'c:\\program files\\python35\\lib\\site-packages\\numpy\\_globals.py',
   'PYMODULE')])
