('D:\\Data-Science\\Programming_Assignment_2\\project_decision_tree\\build\\dt\\out00-PKG.pkg',
 {'BINARY': 1,
  'DATA': 1,
  'EXECUTABLE': 1,
  'EXTENSION': 1,
  'PYMODULE': 1,
  'PYSOURCE': 1,
  'PYZ': 0},
 [('out00-PYZ.pyz',
   'D:\\Data-Science\\Programming_Assignment_2\\project_decision_tree\\build\\dt\\out00-PYZ.pyz',
   'PYZ'),
  ('struct',
   'D:\\Data-Science\\Programming_Assignment_2\\project_decision_tree\\build\\dt\\localpycos\\struct.pyo',
   'PYMODULE'),
  ('pyimod01_os_path',
   'D:\\Data-Science\\Programming_Assignment_2\\project_decision_tree\\build\\dt\\localpycos\\pyimod01_os_path.pyc',
   'PYMODULE'),
  ('pyimod02_archive',
   'D:\\Data-Science\\Programming_Assignment_2\\project_decision_tree\\build\\dt\\localpycos\\pyimod02_archive.pyc',
   'PYMODULE'),
  ('pyimod03_importers',
   'D:\\Data-Science\\Programming_Assignment_2\\project_decision_tree\\build\\dt\\localpycos\\pyimod03_importers.pyc',
   'PYMODULE'),
  ('pyiboot01_bootstrap',
   'c:\\program '
   'files\\python35\\lib\\site-packages\\PyInstaller\\loader\\pyiboot01_bootstrap.py',
   'PYSOURCE'),
  ('dt',
   'D:\\Data-Science\\Programming_Assignment_2\\project_decision_tree\\dt.py',
   'PYSOURCE'),
  ('VCRUNTIME140.dll',
   'c:\\program files\\python35\\VCRUNTIME140.dll',
   'BINARY'),
  ('python35.dll', 'c:\\program files\\python35\\python35.dll', 'BINARY'),
  ('_ssl', 'c:\\program files\\python35\\DLLs\\_ssl.pyd', 'EXTENSION'),
  ('unicodedata',
   'c:\\program files\\python35\\DLLs\\unicodedata.pyd',
   'EXTENSION'),
  ('_ctypes', 'c:\\program files\\python35\\DLLs\\_ctypes.pyd', 'EXTENSION'),
  ('pyexpat', 'c:\\program files\\python35\\DLLs\\pyexpat.pyd', 'EXTENSION'),
  ('_hashlib', 'c:\\program files\\python35\\DLLs\\_hashlib.pyd', 'EXTENSION'),
  ('select', 'c:\\program files\\python35\\DLLs\\select.pyd', 'EXTENSION'),
  ('_bz2', 'c:\\program files\\python35\\DLLs\\_bz2.pyd', 'EXTENSION'),
  ('_lzma', 'c:\\program files\\python35\\DLLs\\_lzma.pyd', 'EXTENSION'),
  ('_socket', 'c:\\program files\\python35\\DLLs\\_socket.pyd', 'EXTENSION'),
  ('base_library.zip',
   'D:\\Data-Science\\Programming_Assignment_2\\project_decision_tree\\build\\dt\\base_library.zip',
   'DATA'),
  ('dt.exe.manifest',
   'D:\\Data-Science\\Programming_Assignment_2\\project_decision_tree\\build\\dt\\dt.exe.manifest',
   'BINARY'),
  ('pyi-windows-manifest-filename dt.exe.manifest', '', 'OPTION')],
 False,
 False,
 False)
