('D:\\Data-Science\\Programming_Assignment_2\\project_decision_tree\\dist\\dt.exe',
 True,
 False,
 False,
 None,
 None,
 False,
 False,
 '<?xml version="1.0" encoding="UTF-8" standalone="yes"?><assembly manifestVersion="1.0" xmlns="urn:schemas-microsoft-com:asm.v1"><assemblyIdentity name="dt" processorArchitecture="amd64" type="win32" version="1.0.0.0"/><compatibility xmlns="urn:schemas-microsoft-com:compatibility.v1"><application><supportedOS Id="{1f676c76-80e1-4239-95bb-83d0f6d0da78}"/><supportedOS Id="{4a2f28e3-53b9-4441-ba9c-d69d4a4a6e38}"/><supportedOS Id="{35138b9a-5d96-4fbd-8e2d-a2440225f93a}"/><supportedOS Id="{8e0f7a12-bfb3-4fe8-b9a5-48fd50a15a9a}"/><supportedOS Id="{e2011457-1546-43c5-a5fe-008deee3d3f0}"/></application></compatibility></assembly>',
 True,
 'dt.pkg',
 [('out00-PYZ.pyz',
   'D:\\Data-Science\\Programming_Assignment_2\\project_decision_tree\\build\\dt\\out00-PYZ.pyz',
   'PYZ'),
  ('struct',
   'D:\\Data-Science\\Programming_Assignment_2\\project_decision_tree\\build\\dt\\localpycos\\struct.pyo',
   'PYMODULE'),
  ('pyimod01_os_path',
   'D:\\Data-Science\\Programming_Assignment_2\\project_decision_tree\\build\\dt\\localpycos\\pyimod01_os_path.pyc',
   'PYMODULE'),
  ('pyimod02_archive',
   'D:\\Data-Science\\Programming_Assignment_2\\project_decision_tree\\build\\dt\\localpycos\\pyimod02_archive.pyc',
   'PYMODULE'),
  ('pyimod03_importers',
   'D:\\Data-Science\\Programming_Assignment_2\\project_decision_tree\\build\\dt\\localpycos\\pyimod03_importers.pyc',
   'PYMODULE'),
  ('pyiboot01_bootstrap',
   'c:\\program '
   'files\\python35\\lib\\site-packages\\PyInstaller\\loader\\pyiboot01_bootstrap.py',
   'PYSOURCE'),
  ('dt',
   'D:\\Data-Science\\Programming_Assignment_2\\project_decision_tree\\dt.py',
   'PYSOURCE'),
  ('VCRUNTIME140.dll',
   'c:\\program files\\python35\\VCRUNTIME140.dll',
   'BINARY'),
  ('python35.dll', 'c:\\program files\\python35\\python35.dll', 'BINARY'),
  ('_ssl', 'c:\\program files\\python35\\DLLs\\_ssl.pyd', 'EXTENSION'),
  ('unicodedata',
   'c:\\program files\\python35\\DLLs\\unicodedata.pyd',
   'EXTENSION'),
  ('_ctypes', 'c:\\program files\\python35\\DLLs\\_ctypes.pyd', 'EXTENSION'),
  ('pyexpat', 'c:\\program files\\python35\\DLLs\\pyexpat.pyd', 'EXTENSION'),
  ('_hashlib', 'c:\\program files\\python35\\DLLs\\_hashlib.pyd', 'EXTENSION'),
  ('select', 'c:\\program files\\python35\\DLLs\\select.pyd', 'EXTENSION'),
  ('_bz2', 'c:\\program files\\python35\\DLLs\\_bz2.pyd', 'EXTENSION'),
  ('_lzma', 'c:\\program files\\python35\\DLLs\\_lzma.pyd', 'EXTENSION'),
  ('_socket', 'c:\\program files\\python35\\DLLs\\_socket.pyd', 'EXTENSION'),
  ('base_library.zip',
   'D:\\Data-Science\\Programming_Assignment_2\\project_decision_tree\\build\\dt\\base_library.zip',
   'DATA'),
  ('dt.exe.manifest',
   'D:\\Data-Science\\Programming_Assignment_2\\project_decision_tree\\build\\dt\\dt.exe.manifest',
   'BINARY'),
  ('pyi-windows-manifest-filename dt.exe.manifest', '', 'OPTION')],
 [],
 False,
 False,
 1492620199,
 [('run.exe',
   'c:\\program '
   'files\\python35\\lib\\site-packages\\PyInstaller\\bootloader\\Windows-64bit\\run.exe',
   'EXECUTABLE')])
